// Jest Snapshot v1, https://goo.gl/fbAQLP

exports[`Movie card error rendering and interactions with remove buttons 1`] = `
<div>
  <div
    class="ant-alert ant-alert-error ant-alert-with-description"
    data-show="true"
  >
    <span
      aria-label="close-circle"
      class="anticon anticon-close-circle ant-alert-icon"
      role="img"
    >
      <svg
        aria-hidden="true"
        class=""
        data-icon="close-circle"
        fill="currentColor"
        focusable="false"
        height="1em"
        viewBox="64 64 896 896"
        width="1em"
      >
        <path
          d="M685.4 354.8c0-4.4-3.6-8-8-8l-66 .3L512 465.6l-99.3-118.4-66.1-.3c-4.4 0-8 3.5-8 8 0 1.9.7 3.7 1.9 5.2l130.1 155L340.5 670a8.32 8.32 0 00-1.9 5.2c0 4.4 3.6 8 8 8l66.1-.3L512 564.4l99.3 118.4 66 .3c4.4 0 8-3.5 8-8 0-1.9-.7-3.7-1.9-5.2L553.5 515l130.1-155c1.2-1.4 1.8-3.3 1.8-5.2z"
        />
        <path
          d="M512 65C264.6 65 64 265.6 64 513s200.6 448 448 448 448-200.6 448-448S759.4 65 512 65zm0 820c-205.4 0-372-166.6-372-372s166.6-372 372-372 372 166.6 372 372-166.6 372-372 372z"
        />
      </svg>
    </span>
    <span
      class="ant-alert-message"
    >
      <strong>
        Item unavailable. 
        (MOVIE ID: 2164)
      </strong>
    </span>
    <span
      class="ant-alert-description"
    >
      <p>
        Error: Fetch error
      </p>
      <p>
        <button
          ant-click-animating-without-extra-node="false"
          class="ant-btn ant-btn-danger"
          style="margin-right: 20px;"
          type="button"
        >
          <span
            aria-label="star"
            class="anticon anticon-star"
            role="img"
          >
            <svg
              aria-hidden="true"
              class=""
              data-icon="star"
              fill="currentColor"
              focusable="false"
              height="1em"
              viewBox="64 64 896 896"
              width="1em"
            >
              <path
                d="M908.1 353.1l-253.9-36.9L540.7 86.1c-3.1-6.3-8.2-11.4-14.5-14.5-15.8-7.8-35-1.3-42.9 14.5L369.8 316.2l-253.9 36.9c-7 1-13.4 4.3-18.3 9.3a32.05 32.05 0 00.6 45.3l183.7 179.1-43.4 252.9a31.95 31.95 0 0046.4 33.7L512 754l227.1 119.4c6.2 3.3 13.4 4.4 20.3 3.2 17.4-3 29.1-19.5 26.1-36.9l-43.4-252.9 183.7-179.1c5-4.9 8.3-11.3 9.3-18.3 2.7-17.5-9.5-33.7-27-36.3z"
              />
            </svg>
          </span>
          <span>
             Remove from favorites
          </span>
        </button>
        <button
          ant-click-animating-without-extra-node="false"
          class="ant-btn ant-btn-danger"
          type="button"
        >
          <span
            aria-label="check"
            class="anticon anticon-check"
            role="img"
          >
            <svg
              aria-hidden="true"
              class=""
              data-icon="check"
              fill="currentColor"
              focusable="false"
              height="1em"
              viewBox="64 64 896 896"
              width="1em"
            >
              <path
                d="M912 190h-69.9c-9.8 0-19.1 4.5-25.1 12.2L404.7 724.5 207 474a32 32 0 00-25.1-12.2H112c-6.7 0-10.4 7.7-6.3 12.9l273.9 347c12.8 16.2 37.4 16.2 50.3 0l488.4-618.9c4.1-5.1.4-12.8-6.3-12.8z"
              />
            </svg>
          </span>
          <span>
             Remove from watch list
          </span>
        </button>
      </p>
    </span>
  </div>
</div>
`;

exports[`Movie card error rendering without remove buttons 1`] = `
<div>
  <div
    class="ant-alert ant-alert-error ant-alert-with-description"
    data-show="true"
  >
    <span
      aria-label="close-circle"
      class="anticon anticon-close-circle ant-alert-icon"
      role="img"
    >
      <svg
        aria-hidden="true"
        class=""
        data-icon="close-circle"
        fill="currentColor"
        focusable="false"
        height="1em"
        viewBox="64 64 896 896"
        width="1em"
      >
        <path
          d="M685.4 354.8c0-4.4-3.6-8-8-8l-66 .3L512 465.6l-99.3-118.4-66.1-.3c-4.4 0-8 3.5-8 8 0 1.9.7 3.7 1.9 5.2l130.1 155L340.5 670a8.32 8.32 0 00-1.9 5.2c0 4.4 3.6 8 8 8l66.1-.3L512 564.4l99.3 118.4 66 .3c4.4 0 8-3.5 8-8 0-1.9-.7-3.7-1.9-5.2L553.5 515l130.1-155c1.2-1.4 1.8-3.3 1.8-5.2z"
        />
        <path
          d="M512 65C264.6 65 64 265.6 64 513s200.6 448 448 448 448-200.6 448-448S759.4 65 512 65zm0 820c-205.4 0-372-166.6-372-372s166.6-372 372-372 372 166.6 372 372-166.6 372-372 372z"
        />
      </svg>
    </span>
    <span
      class="ant-alert-message"
    >
      <strong>
        Item unavailable. 
        (MOVIE ID: 2164)
      </strong>
    </span>
    <span
      class="ant-alert-description"
    >
      <p>
        Error: Fetch error
      </p>
      <p />
    </span>
  </div>
</div>
`;
